{
	"ImportPath": "bitbucket.org/georgerogers42/essocony",
	"GoVersion": "go1.5.1",
	"Deps": [
		{
			"ImportPath": "bitbucket.org/georgerogers42/esso",
			"Rev": "65b8afcfdb448f0fec33913a7445583fc169632e"
		},
		{
			"ImportPath": "github.com/gorilla/context",
			"Rev": "1c83b3eabd45b6d76072b66b746c20815fb2872d"
		},
		{
			"ImportPath": "github.com/gorilla/mux",
			"Rev": "ad4d7a5882b961e07e2626045eb995c022ac6664"
		},
		{
			"ImportPath": "github.com/russross/blackfriday",
			"Comment": "v1.3-1-gfbdd061",
			"Rev": "fbdd06145d35fb97a93929e51ee3748ec1d648ee"
		},
		{
			"ImportPath": "github.com/shurcooL/sanitized_anchor_name",
			"Rev": "244f5ac324cb97e1987ef901a0081a77bfd8e845"
		}
	]
}
